        var num = Math.floor( Math.random() * imgAr.length );
        var img = imgAr[ num ];
        var imgStr = '<img src="' + img + '" alt = "error">';
        document.write(imgStr); document.close();
    }
  </script>
  <script type="text/javascript">getRandomImage()</script>
</body>
</html>
